{
  "name": "unimag",
  "app_id": "54e244a8",
  "type": "ionic1",
  "watchPatterns": [
    "scss/**/*",
    "www/**/*",
    "!www/lib/**/*",
    "!www/**/*.map"
  ],
  "integrations": {
    "cordova": {}
  }
}
